Guia 6/OrgComp/Procesador/TOP_tb.vcd
$date
	Mon Nov 13 21:47:24 2023
$end
$version
	Icarus Verilog
$end
$timescale
	1ps
$end
$scope module TOP_tb $end
$var wire 1 ! tx $end
$var reg 1 " clk $end
$var reg 1 # rst $end
$var reg 1 $ rx $end
$scope module TOP_1 $end
$var wire 1 " clk $end
$var wire 1 # rst $end
$var wire 1 $ rx $end
$var wire 1 ! tx $end
$var wire 1 % T_wr_uart $end
$var wire 8 & T_w_data [7:0] $end
$var wire 1 ' T_tx_full $end
$var wire 1 ( T_rx_empty $end
$var wire 32 ) T_result [31:0] $end
$var wire 2 * T_resSrc [1:0] $end
$var wire 32 + T_res [31:0] $end
$var wire 1 , T_rd_uart $end
$var wire 32 - T_rd2 [31:0] $end
$var wire 8 . T_r_data [7:0] $end
$var wire 16 / T_pc [15:0] $end
$var wire 1 0 T_memWrite $end
$var wire 32 1 T_instr [31:0] $end
$var wire 32 2 T_ADD2_sal [31:0] $end
$scope module MEM_1 $end
$var wire 32 3 MUX2_e1 [31:0] $end
$var wire 32 4 MUX2_e2 [31:0] $end
$var wire 32 5 MUX2_e3 [31:0] $end
$var wire 2 6 MUX2_sel [1:0] $end
$var wire 1 " clk $end
$var wire 1 , rd_uart $end
$var wire 8 7 w_data [7:0] $end
$var wire 1 % wr_uart $end
$var wire 1 ' tx_full $end
$var wire 1 8 selcUart $end
$var wire 1 9 selcDM $end
$var wire 1 ( rx_empty $end
$var wire 32 : result_DM [31:0] $end
$var wire 8 ; r_data [7:0] $end
$var wire 16 < addr_virtual [15:0] $end
$var wire 16 = addr_phisical [15:0] $end
$var wire 32 > M_wd [31:0] $end
$var wire 32 ? M_result [31:0] $end
$var wire 2 @ M_resSrc [1:0] $end
$var wire 32 A M_res [31:0] $end
$var wire 16 B M_pc [15:0] $end
$var wire 1 0 M_memWrite $end
$var wire 32 C M_instr [31:0] $end
$var wire 2 D M_block_select [1:0] $end
$var wire 32 E M_ADD2_sal [31:0] $end
$var wire 32 F MUX2_sal [31:0] $end
$var reg 32 G M_reg_r_data [31:0] $end
$var reg 1 H M_reg_rd_uart $end
$var reg 32 I M_reg_rx_empty [31:0] $end
$var reg 32 J M_reg_tx_full [31:0] $end
$var reg 8 K M_reg_w_data [7:0] $end
$var reg 1 % M_reg_wr_uart $end
$var reg 32 L result_uart [31:0] $end
$scope module DM_1 $end
$var wire 1 " clk $end
$var wire 32 M rd [31:0] $end
$var wire 1 N we $end
$var wire 32 O wd [31:0] $end
$var wire 16 P adress [15:0] $end
$upscope $end
$scope module IM_1 $end
$var wire 32 Q rd [31:0] $end
$var wire 16 R adress [15:0] $end
$upscope $end
$scope module MMU_1 $end
$var wire 16 S address_virtual [15:0] $end
$var reg 16 T address_phisical [15:0] $end
$var reg 2 U block_select [1:0] $end
$upscope $end
$scope module MUX3x1_2 $end
$var wire 32 V e1 [31:0] $end
$var wire 32 W e2 [31:0] $end
$var wire 32 X e3 [31:0] $end
$var wire 2 Y sel [1:0] $end
$var wire 32 Z sal [31:0] $end
$upscope $end
$upscope $end
$scope module RV32I_1 $end
$var wire 32 [ RV_instr [31:0] $end
$var wire 1 0 RV_memWrite $end
$var wire 2 \ RV_resSrc [1:0] $end
$var wire 32 ] RV_result [31:0] $end
$var wire 1 # RV_rst $end
$var wire 1 " clk $end
$var wire 1 ^ UC_zero $end
$var wire 2 _ UC_resSrc [1:0] $end
$var wire 1 ` UC_regWrite $end
$var wire 1 a UC_pcSrc $end
$var wire 7 b UC_op [6:0] $end
$var wire 1 c UC_memWrite $end
$var wire 2 d UC_immSrc [1:0] $end
$var wire 1 e UC_f7_0 $end
$var wire 1 f UC_f7 $end
$var wire 3 g UC_f3 [2:0] $end
$var wire 1 h UC_ALUsrc $end
$var wire 3 i UC_ALUcontrol [2:0] $end
$var wire 32 j RV_res [31:0] $end
$var wire 32 k RV_rd2 [31:0] $end
$var wire 16 l RV_pc [15:0] $end
$var wire 32 m RV_ADD2_sal [31:0] $end
$scope module DP_1 $end
$var wire 32 n ADD1_op2 [31:0] $end
$var wire 32 o ADD2_op1 [31:0] $end
$var wire 32 p DP_ADD2_sal [31:0] $end
$var wire 32 q DP_instr [31:0] $end
$var wire 16 r DP_pc [15:0] $end
$var wire 32 s DP_rd2 [31:0] $end
$var wire 32 t DP_result [31:0] $end
$var wire 1 # DP_rst $end
$var wire 32 u DP_wd3 [31:0] $end
$var wire 1 v DP_we $end
$var wire 32 w MUX1_e1 [31:0] $end
$var wire 32 x MUX1_e2 [31:0] $end
$var wire 1 y MUX1_sel $end
$var wire 32 z MUX3_e1 [31:0] $end
$var wire 32 { MUX3_e2 [31:0] $end
$var wire 1 | MUX3_sel $end
$var wire 1 " clk $end
$var wire 16 } pcNext [15:0] $end
$var wire 16 ~ pc [15:0] $end
$var wire 32 !" MUX3_sal [31:0] $end
$var wire 32 "" MUX1_sal [31:0] $end
$var wire 1 ^ DP_zero $end
$var wire 32 #" DP_res [31:0] $end
$var wire 1 ` DP_regWrite $end
$var wire 32 $" DP_rd2_aux [31:0] $end
$var wire 32 %" DP_rd1 [31:0] $end
$var wire 1 a DP_pcSrc $end
$var wire 2 &" DP_immSrc [1:0] $end
$var wire 32 '" DP_immExt [31:0] $end
$var wire 5 (" DP_a3 [4:0] $end
$var wire 5 )" DP_a2 [4:0] $end
$var wire 5 *" DP_a1 [4:0] $end
$var wire 1 h DP_ALUsrc $end
$var wire 3 +" DP_ALUcontrol [2:0] $end
$var wire 32 ," ADD2_sal [31:0] $end
$var wire 32 -" ADD2_op2 [31:0] $end
$var wire 32 ." ADD1_sal [31:0] $end
$var wire 32 /" ADD1_op1 [31:0] $end
$scope module ADD_1 $end
$var wire 32 0" op1 [31:0] $end
$var wire 32 1" op2 [31:0] $end
$var wire 32 2" sal [31:0] $end
$upscope $end
$scope module ADD_2 $end
$var wire 32 3" op1 [31:0] $end
$var wire 32 4" op2 [31:0] $end
$var wire 32 5" sal [31:0] $end
$upscope $end
$scope module ALU_1 $end
$var wire 1 ^ zero $end
$var wire 32 6" srcB [31:0] $end
$var wire 32 7" srcA [31:0] $end
$var wire 32 8" res [31:0] $end
$var wire 3 9" ALUControl [2:0] $end
$var reg 32 :" res1 [31:0] $end
$var reg 1 ^ zero1 $end
$upscope $end
$scope module BR_1 $end
$var wire 5 ;" a1 [4:0] $end
$var wire 5 <" a2 [4:0] $end
$var wire 5 =" a3 [4:0] $end
$var wire 1 " clk $end
$var wire 32 >" wd3 [31:0] $end
$var wire 1 v we $end
$var wire 32 ?" rd2 [31:0] $end
$var wire 32 @" rd1 [31:0] $end
$upscope $end
$scope module MUX2x1_1 $end
$var wire 32 A" e1 [31:0] $end
$var wire 32 B" e2 [31:0] $end
$var wire 1 y sel $end
$var wire 32 C" sal [31:0] $end
$upscope $end
$scope module MUX2x1_3 $end
$var wire 32 D" e1 [31:0] $end
$var wire 32 E" e2 [31:0] $end
$var wire 1 | sel $end
$var wire 32 F" sal [31:0] $end
$upscope $end
$scope module PC_1 $end
$var wire 1 " clk $end
$var wire 16 G" pcNext [15:0] $end
$var reg 16 H" pc [15:0] $end
$upscope $end
$scope module SE_1 $end
$var wire 32 I" instr [31:0] $end
$var wire 2 J" src [1:0] $end
$var reg 32 K" immExt [31:0] $end
$upscope $end
$upscope $end
$scope module UC_1 $end
$var wire 3 L" f3 [2:0] $end
$var wire 1 f f7 $end
$var wire 1 e f7_0 $end
$var wire 7 M" op [6:0] $end
$var wire 1 a pcSrc $end
$var wire 1 ^ zero $end
$var wire 2 N" resSrc [1:0] $end
$var wire 1 ` regWrite $end
$var wire 1 c memWrite $end
$var wire 1 O" jump $end
$var wire 2 P" immSrc [1:0] $end
$var wire 1 Q" branch $end
$var wire 1 R" UC_op5 $end
$var wire 2 S" UC_aluOp [1:0] $end
$var wire 1 h ALUsrc $end
$var wire 3 T" ALUcontrol [2:0] $end
$scope module aluDeco_1 $end
$var wire 3 U" f3 [2:0] $end
$var wire 1 f f7 $end
$var wire 1 e f7_0 $end
$var wire 1 R" op5 $end
$var wire 2 V" aluOp [1:0] $end
$var reg 3 W" aluControl [2:0] $end
$upscope $end
$scope module mainDeco_1 $end
$var wire 7 X" op [6:0] $end
$var reg 2 Y" aluOp [1:0] $end
$var reg 1 h aluSrc $end
$var reg 1 Q" branch $end
$var reg 2 Z" immSrc [1:0] $end
$var reg 1 O" jump $end
$var reg 1 c memWrite $end
$var reg 1 ` regWrite $end
$var reg 2 [" resSrc [1:0] $end
$upscope $end
$upscope $end
$upscope $end
$scope module uart_1 $end
$var wire 1 " clk $end
$var wire 1 , rd_uart $end
$var wire 1 # reset $end
$var wire 1 $ rx $end
$var wire 1 \" tx_fifo_not_empty $end
$var wire 8 ]" w_data [7:0] $end
$var wire 1 % wr_uart $end
$var wire 1 ' tx_full $end
$var wire 8 ^" tx_fifo_out [7:0] $end
$var wire 1 _" tx_empty $end
$var wire 1 `" tx_done_tick $end
$var wire 1 ! tx $end
$var wire 1 a" tick $end
$var wire 1 ( rx_empty $end
$var wire 1 b" rx_done_tick $end
$var wire 8 c" rx_data_out [7:0] $end
$var wire 8 d" r_data [7:0] $end
$scope module baud_gen_unit $end
$var wire 1 " clk $end
$var wire 1 e" q $end
$var wire 1 # reset $end
$var wire 1 f" r_next $end
$var wire 1 a" max_tick $end
$var reg 1 g" r_reg $end
$upscope $end
$scope module fifo_tx_unit $end
$var wire 1 " clk $end
$var wire 1 ' full $end
$var wire 8 h" r_data [7:0] $end
$var wire 1 # reset $end
$var wire 8 i" w_data [7:0] $end
$var wire 1 % wr $end
$var wire 1 j" wr_en $end
$var wire 1 `" rd $end
$var wire 1 _" empty $end
$var reg 1 k" empty_next $end
$var reg 1 _" empty_reg $end
$var reg 1 l" full_next $end
$var reg 1 m" full_reg $end
$var reg 2 n" r_ptr_next [1:0] $end
$var reg 2 o" r_ptr_reg [1:0] $end
$var reg 2 p" r_ptr_succ [1:0] $end
$var reg 2 q" w_ptr_next [1:0] $end
$var reg 2 r" w_ptr_reg [1:0] $end
$var reg 2 s" w_ptr_succ [1:0] $end
$upscope $end
$scope module flag_buf_rx_unit $end
$var wire 1 " clk $end
$var wire 1 , clr_flag $end
$var wire 8 t" dout [7:0] $end
$var wire 1 ( flag $end
$var wire 1 # reset $end
$var wire 1 b" set_flag $end
$var wire 8 u" din [7:0] $end
$var reg 8 v" buf_next [7:0] $end
$var reg 8 w" buf_reg [7:0] $end
$var reg 1 x" flag_next $end
$var reg 1 y" flag_reg $end
$upscope $end
$scope module uart_rx_unit $end
$var wire 1 " clk $end
$var wire 8 z" dout [7:0] $end
$var wire 1 # reset $end
$var wire 1 $ rx $end
$var wire 1 a" s_tick $end
$var reg 8 {" b_next [7:0] $end
$var reg 8 |" b_reg [7:0] $end
$var reg 3 }" n_next [2:0] $end
$var reg 3 ~" n_reg [2:0] $end
$var reg 1 b" rx_done_tick $end
$var reg 4 !# s_next [3:0] $end
$var reg 4 "# s_reg [3:0] $end
$var reg 2 ## state_next [1:0] $end
$var reg 2 $# state_reg [1:0] $end
$upscope $end
$scope module uart_tx_unit $end
$var wire 1 " clk $end
$var wire 8 %# din [7:0] $end
$var wire 1 # reset $end
$var wire 1 a" s_tick $end
$var wire 1 ! tx $end
$var wire 1 \" tx_start $end
$var reg 8 &# b_next [7:0] $end
$var reg 8 '# b_reg [7:0] $end
$var reg 3 (# n_next [2:0] $end
$var reg 3 )# n_reg [2:0] $end
$var reg 4 *# s_next [3:0] $end
$var reg 4 +# s_reg [3:0] $end
$var reg 2 ,# state_next [1:0] $end
$var reg 2 -# state_reg [1:0] $end
$var reg 1 `" tx_done_tick $end
$var reg 1 .# tx_next $end
$var reg 1 /# tx_reg $end
$upscope $end
$upscope $end
$upscope $end
$upscope $end
$enddefinitions $end
#0
$dumpvars
x/#
x.#
bx -#
bx ,#
bx +#
bx *#
bx )#
bx (#
bx '#
bx &#
bx %#
bx $#
bx ##
bx "#
bx !#
bx ~"
bx }"
bx |"
bx {"
bx z"
xy"
xx"
bx w"
bx v"
bx u"
bx t"
bx s"
bx r"
bx q"
bx p"
bx o"
bx n"
xm"
xl"
xk"
xj"
bx i"
bx h"
xg"
xf"
xe"
bx d"
bx c"
0b"
xa"
0`"
x_"
bx ^"
bx ]"
x\"
bx ["
bx Z"
bx Y"
bx X"
bx W"
bx V"
bx U"
bx T"
bx S"
xR"
xQ"
bx P"
xO"
bx N"
bx M"
bx L"
bx K"
bx J"
bx I"
bx H"
bx G"
bx F"
bx E"
bx D"
bx C"
bx B"
bx A"
bx @"
bx ?"
bx >"
bx ="
bx <"
bx ;"
bx :"
bx 9"
bx 8"
bx 7"
bx 6"
bx 5"
b0xxxxxxxxxxxxxxxx 4"
bx 3"
bx 2"
b100 1"
b0xxxxxxxxxxxxxxxx 0"
b0xxxxxxxxxxxxxxxx /"
bx ."
b0xxxxxxxxxxxxxxxx -"
bx ,"
bx +"
bx *"
bx )"
bx ("
bx '"
bx &"
bx %"
bx $"
bx #"
bx ""
bx !"
bx ~
bx }
x|
bx {
bx z
xy
bx x
bx w
xv
bx u
bx t
bx s
bx r
bx q
bx p
bx o
b100 n
bx m
bx l
bx k
bx j
bx i
xh
bx g
xf
xe
bx d
xc
bx b
xa
x`
bx _
x^
bx ]
bx \
bx [
bx Z
bx Y
bx X
bx W
bx V
bx U
bx T
bx S
bx R
bx Q
bx P
bx O
xN
bx M
bx L
bx K
bx J
bx I
xH
bx G
bx F
bx E
bx D
bx C
bx B
bx A
bx @
bx ?
bx >
bx =
bx <
bx ;
bx :
x9
x8
bx 7
bx 6
bx 5
bx 4
bx 3
bx 2
bx 1
x0
bx /
bx .
bx -
x,
bx +
bx *
bx )
x(
x'
bx &
x%
x$
x#
0"
x!
$end
#50000
0#
1"
#100000
0"
#150000
1"
#200000
0"
#250000
b10000000 u
b10000000 >"
b10000000 )
b10000000 ?
b10000000 ]
b10000000 t
b10000000 F
b10000000 Z
09
08
b10000000 4
b10000000 W
b10000000 :
b10000000 M
b0 =
b0 P
b0 T
b0 D
b0 U
b0 <
b0 S
b0 3
b0 V
b0 +
b0 A
b0 j
b0 #"
b0 8"
b0 :"
b0 i
b0 +"
b0 9"
b0 T"
b0 W"
b100 !"
b100 F"
0|
0a
0N
b0 ""
b0 6"
b0 C"
b0 {
b0 E"
b0 5
b0 X
b0 2
b0 E
b0 m
b0 p
b0 ,"
b0 5"
b0 o
b0 3"
b0 x
b0 B"
b0 '"
b0 K"
0O"
b0 S"
b0 V"
b0 Y"
0Q"
b1 6
b1 Y
b1 *
b1 @
b1 \
b1 _
b1 N"
b1 ["
00
0c
1y
1h
b0 d
b0 &"
b0 J"
b0 P"
b0 Z"
1v
1`
1^
0R"
b0 %"
b0 7"
b0 @"
b0 w
b0 A"
b0 -
b0 >
b0 O
b0 k
b0 s
b0 $"
b0 ?"
0f"
0j"
0f
b10 g
b10 L"
b10 U"
b11 b
b11 M"
b11 X"
0e
b0 *"
b0 ;"
b0 )"
b0 <"
b101 ("
b101 ="
1a"
b0 {"
b0 }"
b0 !#
b0 ##
0x"
b0 v"
0\"
b0 L
0,
0H
0%
b0 &
b0 7
b0 ]"
b0 i"
b0 K
b0 G
b0 J
b0 I
1k"
0l"
b0 n"
b0 q"
b1 p"
b1 s"
1.#
b0 &#
b0 (#
b0 *#
b0 ,#
b100 z
b100 D"
b100 ."
b100 2"
b0 /"
b0 0"
b0 -"
b0 4"
b10001010000011 1
b10001010000011 C
b10001010000011 Q
b10001010000011 [
b10001010000011 q
b10001010000011 I"
b0 /
b0 B
b0 R
b0 l
b0 r
b0 ~
b0 H"
0e"
0g"
b0 c"
b0 u"
b0 z"
b0 |"
b0 ~"
b0 "#
b0 $#
0(
0y"
b0 .
b0 ;
b0 d"
b0 t"
b0 w"
1_"
0'
0m"
b0 o"
b0 r"
1!
1/#
b0 '#
b0 )#
b0 +#
b0 -#
b0 }
b0 G"
1"
1#
1$
#300000
0"
#350000
b10 S"
b10 V"
b10 Y"
b0 6
b0 Y
b0 *
b0 @
b0 \
b0 _
b0 N"
b0 ["
b1 u
b1 >"
b1 )
b1 ?
b1 ]
b1 t
b1 F
b1 Z
bx 4
bx W
bx :
bx M
b1 =
b1 P
b1 T
b1 <
b1 S
0^
b1 3
b1 V
b1 +
b1 A
b1 j
b1 #"
b1 8"
b1 :"
bx w
bx A"
bx -
bx >
bx O
bx k
bx s
bx $"
bx ?"
b1 ""
b1 6"
b1 C"
b1000 !"
b1000 F"
b0 g
b0 L"
b0 U"
b10011 b
b10011 M"
b10011 X"
b1 )"
b1 <"
b111 ("
b111 ="
b1 o
b1 3"
b1 x
b1 B"
b1 '"
b1 K"
b1000 z
b1000 D"
b1000 ."
b1000 2"
b100 /"
b100 0"
b101 {
b101 E"
b101 5
b101 X
b101 2
b101 E
b101 m
b101 p
b101 ,"
b101 5"
b100 -"
b100 4"
b100000000001110010011 1
b100000000001110010011 C
b100000000001110010011 Q
b100000000001110010011 [
b100000000001110010011 q
b100000000001110010011 I"
b100 /
b100 B
b100 R
b100 l
b100 r
b100 ~
b100 H"
b1000 }
b1000 G"
1"
0#
#400000
0"
#450000
b10000000 4
b10000000 W
b10000000 :
b10000000 M
b0 =
b0 P
b0 T
b0 u
b0 >"
b0 )
b0 ?
b0 ]
b0 t
b0 <
b0 S
b0 F
b0 Z
b1100 }
b1100 G"
1^
b0 3
b0 V
b0 +
b0 A
b0 j
b0 #"
b0 8"
b0 :"
b0 w
b0 A"
b0 -
b0 >
b0 O
b0 k
b0 s
b0 $"
b0 ?"
b0 ""
b0 6"
b0 C"
b1100 !"
b1100 F"
b0 )"
b0 <"
b11100 ("
b11100 ="
b0 o
b0 3"
b0 x
b0 B"
b0 '"
b0 K"
b1 !#
b1100 z
b1100 D"
b1100 ."
b1100 2"
b1000 /"
b1000 0"
b1000 {
b1000 E"
b1000 5
b1000 X
b1000 2
b1000 E
b1000 m
b1000 p
b1000 ,"
b1000 5"
b1000 -"
b1000 4"
b111000010011 1
b111000010011 C
b111000010011 Q
b111000010011 [
b111000010011 q
b111000010011 I"
b1000 /
b1000 B
b1000 R
b1000 l
b1000 r
b1000 ~
b1000 H"
b1 $#
b1 ##
1"
0$
#500000
0"
#550000
bx 4
bx W
bx :
bx M
b101 =
b101 P
b101 T
b101 u
b101 >"
b101 )
b101 ?
b101 ]
b101 t
b101 <
b101 S
b101 F
b101 Z
b10000 }
b10000 G"
0^
b101 3
b101 V
b101 +
b101 A
b101 j
b101 #"
b101 8"
b101 :"
b10000000 w
b10000000 A"
b10000000 -
b10000000 >
b10000000 O
b10000000 k
b10000000 s
b10000000 $"
b10000000 ?"
b101 ""
b101 6"
b101 C"
b10000 !"
b10000 F"
b101 )"
b101 <"
b11101 ("
b11101 ="
b101 o
b101 3"
b101 x
b101 B"
b101 '"
b101 K"
b10 !#
b10000 z
b10000 D"
b10000 ."
b10000 2"
b1100 /"
b1100 0"
b10001 {
b10001 E"
b10001 5
b10001 X
b10001 2
b10001 E
b10001 m
b10001 p
b10001 ,"
b10001 5"
b1100 -"
b1100 4"
b10100000000111010010011 1
b10100000000111010010011 C
b10100000000111010010011 Q
b10100000000111010010011 [
b10100000000111010010011 q
b10100000000111010010011 I"
b1100 /
b1100 B
b1100 R
b1100 l
b1100 r
b1100 ~
b1100 H"
b1 "#
1"
#600000
0"
#650000
b10000000 4
b10000000 W
b10000000 :
b10000000 M
b0 =
b0 P
b0 T
b0 u
b0 >"
b0 )
b0 ?
b0 ]
b0 t
b0 <
b0 S
b0 F
b0 Z
b10100 }
b10100 G"
1^
b0 3
b0 V
b0 +
b0 A
b0 j
b0 #"
b0 8"
b0 :"
b0 w
b0 A"
b0 -
b0 >
b0 O
b0 k
b0 s
b0 $"
b0 ?"
b0 ""
b0 6"
b0 C"
b10100 !"
b10100 F"
b0 )"
b0 <"
b11110 ("
b11110 ="
b0 o
b0 3"
b0 x
b0 B"
b0 '"
b0 K"
b11 !#
b10100 z
b10100 D"
b10100 ."
b10100 2"
b10000 /"
b10000 0"
b10000 {
b10000 E"
b10000 5
b10000 X
b10000 2
b10000 E
b10000 m
b10000 p
b10000 ,"
b10000 5"
b10000 -"
b10000 4"
b111100010011 1
b111100010011 C
b111100010011 Q
b111100010011 [
b111100010011 q
b111100010011 I"
b10000 /
b10000 B
b10000 R
b10000 l
b10000 r
b10000 ~
b10000 H"
b10 "#
1"
#700000
0"
#750000
bx 4
bx W
bx :
bx M
b1010 =
b1010 P
b1010 T
b1010 u
b1010 >"
b1010 )
b1010 ?
b1010 ]
b1010 t
b1010 <
b1010 S
b1010 F
b1010 Z
b11000 }
b11000 G"
0^
b1010 3
b1010 V
b1010 +
b1010 A
b1010 j
b1010 #"
b1010 8"
b1010 :"
bx w
bx A"
bx -
bx >
bx O
bx k
bx s
bx $"
bx ?"
b1010 ""
b1010 6"
b1010 C"
b11000 !"
b11000 F"
b1010 )"
b1010 <"
b11111 ("
b11111 ="
b1010 o
b1010 3"
b1010 x
b1010 B"
b1010 '"
b1010 K"
b100 !#
b11000 z
b11000 D"
b11000 ."
b11000 2"
b10100 /"
b10100 0"
b11110 {
b11110 E"
b11110 5
b11110 X
b11110 2
b11110 E
b11110 m
b11110 p
b11110 ,"
b11110 5"
b10100 -"
b10100 4"
b101000000000111110010011 1
b101000000000111110010011 C
b101000000000111110010011 Q
b101000000000111110010011 [
b101000000000111110010011 q
b101000000000111110010011 I"
b10100 /
b10100 B
b10100 R
b10100 l
b10100 r
b10100 ~
b10100 H"
b11 "#
1"
#800000
0"
#850000
b10000000 4
b10000000 W
b10000000 :
b10000000 M
b0 =
b0 P
b0 T
b0 u
b0 >"
b0 )
b0 ?
b0 ]
b0 t
b0 <
b0 S
b0 F
b0 Z
b11100 }
b11100 G"
1^
b0 3
b0 V
b0 +
b0 A
b0 j
b0 #"
b0 8"
b0 :"
b0 w
b0 A"
b0 -
b0 >
b0 O
b0 k
b0 s
b0 $"
b0 ?"
b0 ""
b0 6"
b0 C"
b11100 !"
b11100 F"
b0 )"
b0 <"
b1011 ("
b1011 ="
b0 o
b0 3"
b0 x
b0 B"
b0 '"
b0 K"
b101 !#
b11100 z
b11100 D"
b11100 ."
b11100 2"
b11000 /"
b11000 0"
b11000 {
b11000 E"
b11000 5
b11000 X
b11000 2
b11000 E
b11000 m
b11000 p
b11000 ,"
b11000 5"
b11000 -"
b11000 4"
b10110010011 1
b10110010011 C
b10110010011 Q
b10110010011 [
b10110010011 q
b10110010011 I"
b11000 /
b11000 B
b11000 R
b11000 l
b11000 r
b11000 ~
b11000 H"
b100 "#
1"
#900000
0"
#950000
b100000 }
b100000 G"
b100000 !"
b100000 F"
b1100 ("
b1100 ="
b110 !#
b100000 z
b100000 D"
b100000 ."
b100000 2"
b11100 /"
b11100 0"
b11100 {
b11100 E"
b11100 5
b11100 X
b11100 2
b11100 E
b11100 m
b11100 p
b11100 ,"
b11100 5"
b11100 -"
b11100 4"
b11000010011 1
b11000010011 C
b11000010011 Q
b11000010011 [
b11000010011 q
b11000010011 I"
b11100 /
b11100 B
b11100 R
b11100 l
b11100 r
b11100 ~
b11100 H"
b101 "#
1"
#1000000
0"
#1050000
bx 4
bx W
bx :
bx M
b110000 =
b110000 P
b110000 T
b110000 u
b110000 >"
b110000 )
b110000 ?
b110000 ]
b110000 t
b110000 <
b110000 S
b110000 F
b110000 Z
b100100 }
b100100 G"
0^
b110000 3
b110000 V
b110000 +
b110000 A
b110000 j
b110000 #"
b110000 8"
b110000 :"
bx w
bx A"
bx -
bx >
bx O
bx k
bx s
bx $"
bx ?"
b110000 ""
b110000 6"
b110000 C"
b100100 !"
b100100 F"
1e
b10000 )"
b10000 <"
b1101 ("
b1101 ="
b110000 o
b110000 3"
b110000 x
b110000 B"
b110000 '"
b110000 K"
b111 !#
b100100 z
b100100 D"
b100100 ."
b100100 2"
b100000 /"
b100000 0"
b1010000 {
b1010000 E"
b1010000 5
b1010000 X
b1010000 2
b1010000 E
b1010000 m
b1010000 p
b1010000 ,"
b1010000 5"
b100000 -"
b100000 4"
b11000000000000011010010011 1
b11000000000000011010010011 C
b11000000000000011010010011 Q
b11000000000000011010010011 [
b11000000000000011010010011 q
b11000000000000011010010011 I"
b100000 /
b100000 B
b100000 R
b100000 l
b100000 r
b100000 ~
b100000 H"
b110 "#
1"
#1100000
0"
#1150000
b10 =
b10 P
b10 T
b10 u
b10 >"
b10 )
b10 ?
b10 ]
b10 t
b10 <
b10 S
b10 F
b10 Z
b101000 }
b101000 G"
b10 3
b10 V
b10 +
b10 A
b10 j
b10 #"
b10 8"
b10 :"
b10 ""
b10 6"
b10 C"
b101000 !"
b101000 F"
0e
b10 )"
b10 <"
b1110 ("
b1110 ="
b10 o
b10 3"
b10 x
b10 B"
b10 '"
b10 K"
b0 !#
b10 ##
b101000 z
b101000 D"
b101000 ."
b101000 2"
b100100 /"
b100100 0"
b100110 {
b100110 E"
b100110 5
b100110 X
b100110 2
b100110 E
b100110 m
b100110 p
b100110 ,"
b100110 5"
b100100 -"
b100100 4"
b1000000000011100010011 1
b1000000000011100010011 C
b1000000000011100010011 Q
b1000000000011100010011 [
b1000000000011100010011 q
b1000000000011100010011 I"
b100100 /
b100100 B
b100100 R
b100100 l
b100100 r
b100100 ~
b100100 H"
b111 "#
1"
#1200000
0"
#1250000
b11 =
b11 P
b11 T
b11 u
b11 >"
b11 )
b11 ?
b11 ]
b11 t
b11 <
b11 S
b11 F
b11 Z
b101100 }
b101100 G"
b11 3
b11 V
b11 +
b11 A
b11 j
b11 #"
b11 8"
b11 :"
b11 ""
b11 6"
b11 C"
b101100 !"
b101100 F"
b11 )"
b11 <"
b1111 ("
b1111 ="
b11 o
b11 3"
b11 x
b11 B"
b11 '"
b11 K"
b1 !#
b101100 z
b101100 D"
b101100 ."
b101100 2"
b101000 /"
b101000 0"
b101011 {
b101011 E"
b101011 5
b101011 X
b101011 2
b101011 E
b101011 m
b101011 p
b101011 ,"
b101011 5"
b101000 -"
b101000 4"
b1100000000011110010011 1
b1100000000011110010011 C
b1100000000011110010011 Q
b1100000000011110010011 [
b1100000000011110010011 q
b1100000000011110010011 I"
b101000 /
b101000 B
b101000 R
b101000 l
b101000 r
b101000 ~
b101000 H"
b0 "#
b10 $#
1"
#1300000
0"
#1350000
b100 4
b100 W
b100 :
b100 M
b100 =
b100 P
b100 T
b100 u
b100 >"
b100 )
b100 ?
b100 ]
b100 t
b100 <
b100 S
b100 F
b100 Z
b110000 }
b110000 G"
b100 3
b100 V
b100 +
b100 A
b100 j
b100 #"
b100 8"
b100 :"
b100 ""
b100 6"
b100 C"
b110000 !"
b110000 F"
b100 )"
b100 <"
b10000 ("
b10000 ="
b100 o
b100 3"
b100 x
b100 B"
b100 '"
b100 K"
b10 !#
b110000 z
b110000 D"
b110000 ."
b110000 2"
b101100 /"
b101100 0"
b110000 {
b110000 E"
b110000 5
b110000 X
b110000 2
b110000 E
b110000 m
b110000 p
b110000 ,"
b110000 5"
b101100 -"
b101100 4"
b10000000000100000010011 1
b10000000000100000010011 C
b10000000000100000010011 Q
b10000000000100000010011 [
b10000000000100000010011 q
b10000000000100000010011 I"
b101100 /
b101100 B
b101100 R
b101100 l
b101100 r
b101100 ~
b101100 H"
b1 "#
1"
#1400000
0"
#1450000
0^
b0 i
b0 +"
b0 9"
b0 T"
b0 W"
b0 S"
b0 V"
b0 Y"
b1 6
b1 Y
b1 *
b1 @
b1 \
b1 _
b1 N"
b1 ["
18
bx 4
bx W
bx :
bx M
b1000 =
b1000 P
b1000 T
b10 D
b10 U
b0 u
b0 >"
b0 )
b0 ?
b0 ]
b0 t
b10001000 <
b10001000 S
bx F
bx Z
b110100 }
b110100 G"
b10001000 3
b10001000 V
b10001000 +
b10001000 A
b10001000 j
b10001000 #"
b10001000 8"
b10001000 :"
b10000000 %"
b10000000 7"
b10000000 @"
b1000 ""
b1000 6"
b1000 C"
b110100 !"
b110100 F"
b10 g
b10 L"
b10 U"
b11 b
b11 M"
b11 X"
b101 *"
b101 ;"
b1000 )"
b1000 <"
b110 ("
b110 ="
b1000 o
b1000 3"
b1000 x
b1000 B"
b1000 '"
b1000 K"
b11 !#
b110100 z
b110100 D"
b110100 ."
b110100 2"
b110000 /"
b110000 0"
b111000 {
b111000 E"
b111000 5
b111000 X
b111000 2
b111000 E
b111000 m
b111000 p
b111000 ,"
b111000 5"
b110000 -"
b110000 4"
b100000101010001100000011 1
b100000101010001100000011 C
b100000101010001100000011 Q
b100000101010001100000011 [
b100000101010001100000011 q
b100000101010001100000011 I"
b110000 /
b110000 B
b110000 R
b110000 l
b110000 r
b110000 ~
b110000 H"
b10 "#
1"
#1500000
0"
